1,-0.5067160727,3.166822584,-2.578687
2,-0.5131222764,3.150034703,-2.572438
3,-0.5247144863,3.138254259,-2.559328
4,-0.5413368131,3.131233716,-2.539779
5,-0.5624980165,3.128733734,-2.514272
6,-0.5875628355,3.130510056,-2.483322
7,-0.6161628317,3.136313076,-2.447389
8,-0.6479366095,3.145896868,-2.406927
9,-0.6825281174,3.159021451,-2.362391
10,-0.7195892039,3.175452528,-2.314235
11,-0.7587423893,3.19495557,-2.262901
12,-0.799540574,3.217293244,-2.208816
13,-0.8416360085,3.242250222,-2.152435
14,-0.8847008167,3.269620821,-2.094223
15,-0.9280859198,3.299416078,-2.033508
16,-0.9711472267,3.331533749,-1.96986
17,-1.013561807,3.365631657,-1.904083
18,-1.055019501,3.401384851,-1.83699
19,-1.095265709,3.438476119,-1.76945
20,-1.135146514,3.476847835,-1.703475
21,-1.175435611,3.516644634,-1.640788
22,-1.215843599,3.557904427,-1.581927
23,-1.256057041,3.600723465,-1.527466
24,-1.295673427,3.645237114,-1.477967
25,-1.333164619,3.691229796,-1.432117
26,-1.366768734,3.737907965,-1.388129
27,-1.395768189,3.784433827,-1.345964
28,-1.419666929,3.829918438,-1.305831
29,-1.438186256,3.873524855,-1.268188
30,-1.451226502,3.914545349,-1.233718
31,-1.458966511,3.953262962,-1.201333
32,-1.461834522,3.990183678,-1.169648
33,-1.460253322,4.025188387,-1.139082
34,-1.45469319,4.058300105,-1.110094
35,-1.445667075,4.089652488,-1.083154
36,-1.433381685,4.12022712,-1.057791
37,-1.417824139,4.150686466,-1.033649
38,-1.399297079,4.180619716,-1.011396
39,-1.378055929,4.209600959,-0.991514
40,-1.354247821,4.236802696,-0.974539
41,-1.328247135,4.261459478,-0.960906
42,-1.300829955,4.283075571,-0.950894
43,-1.273658667,4.301362435,-0.944105
44,-1.248582154,4.315922809,-0.940158
45,-1.226807965,4.325931473,-0.939325
46,-1.2082651,4.333086768,-0.941087
47,-1.192122104,4.339532986,-0.944584
48,-1.178310031,4.345112097,-0.94954
49,-1.16672216,4.349633075,-0.95569
50,-1.157225,4.352866114,-0.962766
51,-1.14966217,4.35454612,-0.97048
52,-1.143866166,4.354376009,-0.978508
53,-1.13966897,4.352037015,-0.986479
54,-1.136906712,4.347206767,-0.993978
55,-1.135432072,4.339573363,-1.000545
56,-1.135264557,4.328819252,-1.005936
57,-1.136475888,4.314644672,-1.010027
58,-1.139007013,4.296811645,-1.012511
59,-1.142805525,4.275101751,-1.013101
60,-1.147817936,4.249314465,-1.011537
61,-1.152304207,4.225316064,-1.010335
62,-1.154535403,4.208679063,-1.011986
63,-1.154674227,4.198765517,-1.016962
64,-1.152875767,4.194807081,-1.025838
65,-1.149071979,4.195966092,-1.038504
66,-1.143185095,4.201399664,-1.054858
67,-1.133644636,4.209363514,-1.075373
68,-1.119338637,4.218425087,-1.100194
69,-1.100879307,4.228248816,-1.128741
70,-1.078884231,4.238547577,-1.160458
71,-1.053969602,4.249075495,-1.194819
72,-1.026726754,4.259565458,-1.23096
73,-0.997754222,4.269780475,-1.268085
74,-0.967655068,4.279560807,-1.305833
75,-0.9370081769,4.288762736,-1.343872
76,-0.9063703318,4.297253216,-1.38189
77,-0.876278285,4.304909709,-1.419585
78,-0.8472542064,4.311634262,-1.456655
79,-0.8198109991,4.317346823,-1.492788
80,-0.7944610198,4.322007958,-1.52765
81,-0.7718356149,4.325432974,-1.561138
82,-0.7525963824,4.32748406,-1.59308
83,-0.7385779046,4.329539838,-1.622001
84,-0.7316710071,4.333206998,-1.646254
85,-0.7325504278,4.338832457,-1.665103
86,-0.7419086251,4.34659629,-1.677837
87,-0.7595363383,4.355265681,-1.684606
88,-0.7845854601,4.362763966,-1.68601
89,-0.8168011556,4.367745682,-1.682057
90,-0.8559249256,4.368752772,-1.672778
91,-0.9009305633,4.368600446,-1.659741
92,-0.9506937063,4.370443632,-1.644686
93,-1.004771944,4.373237094,-1.627948
94,-1.062678308,4.375923594,-1.609883
95,-1.12387463,4.37745652,-1.590874
96,-1.187793226,4.376828184,-1.571314
97,-1.253845712,4.373073907,-1.551602
98,-1.321410327,4.365314573,-1.532139
99,-1.38921439,4.353912589,-1.513223
100,-1.455834601,4.339684828,-1.49498
101,-1.520411292,4.322708108,-1.477477
102,-1.582106281,4.303337615,-1.460706
103,-1.640105071,4.28219621,-1.444607
104,-1.693599291,4.260151998,-1.429124
105,-1.741721992,4.238333557,-1.414323
106,-1.783221372,4.218384956,-1.400738
107,-1.781654457,4.212275434,-1.383559
108,-1.772254841,4.207972821,-1.371269
109,-1.756604912,4.204111577,-1.36248
110,-1.735519704,4.200257694,-1.356601
111,-1.70958949,4.196261407,-1.353244
112,-1.679306175,4.192095172,-1.352084
113,-1.645108845,4.187793012,-1.352821
114,-1.607399641,4.183437159,-1.355171
115,-1.566563309,4.179116149,-1.358857
116,-1.522966211,4.174936623,-1.363613
117,-1.476965741,4.171008944,-1.369192
118,-1.428910051,4.167442102,-1.375358
119,-1.37914108,4.164339994,-1.381896
120,-1.327997179,4.161798334,-1.388609
121,-1.277329322,4.15936207,-1.395941
122,-1.228872954,4.156584154,-1.404262
123,-1.182788165,4.153555196,-1.413311
124,-1.13923135,4.150350231,-1.422854
125,-1.098354793,4.147036436,-1.432693
126,-1.060308613,4.143656889,-1.442654
127,-1.025235104,4.140242094,-1.452592
128,-0.993269654,4.136805816,-1.46239
129,-0.9645406321,4.133345234,-1.47195
130,-0.9391663021,4.129840992,-1.481197
131,-0.9172553468,4.126257885,-1.490075
132,-0.8989069984,4.122545834,-1.498542
133,-0.8842093813,4.118640795,-1.50657
134,-0.8732406377,4.114466344,-1.514139
135,-0.866069676,4.109935625,-1.52124
136,-0.8627563906,4.104953209,-1.527861
137,-0.8633536675,4.099417723,-1.533994
138,-0.8679090934,4.093224946,-1.539625
139,-0.87646746,4.086270712,-1.54473
140,-0.8890739926,4.07845475,-1.549276
141,-0.9042402772,4.069802827,-1.553769
142,-0.9203062991,4.060429421,-1.558712
143,-0.9370591937,4.050371411,-1.564047
144,-0.9542826786,4.039664051,-1.569707
145,-0.9717587441,4.028340582,-1.575617
146,-0.9892676769,4.016432894,-1.581696
147,-1.006588074,4.003972384,-1.587856
148,-1.023499072,3.990991137,-1.594005
149,-1.039778787,3.977515704,-1.600044
150,-1.055207411,3.963580744,-1.605874
151,-1.071153561,3.949641435,-1.610229
152,-1.089029874,3.936112799,-1.612015
153,-1.108680792,3.922963748,-1.611389
154,-1.129951423,3.91016981,-1.608503
155,-1.152684365,3.897703136,-1.603506
156,-1.176720272,3.885538146,-1.596547
157,-1.201899196,3.873649579,-1.587773
158,-1.228059924,3.86201291,-1.57733
159,-1.255039078,3.850604717,-1.565367
160,-1.282672979,3.839401854,-1.552029
161,-1.310796848,3.828381853,-1.537465
162,-1.339243887,3.817523269,-1.521825
163,-1.367837035,3.806799561,-1.505256
164,-1.396369522,3.796170971,-1.4879
165,-1.424673208,3.78562115,-1.469911
166,-1.452584958,3.775136178,-1.45145
167,-1.479941113,3.764702429,-1.432678
168,-1.506576612,3.754306896,-1.413764
169,-1.532326909,3.74393645,-1.394874
170,-1.556910528,3.733493121,-1.37592
171,-1.580087877,3.722869819,-1.356841
172,-1.601756834,3.712038893,-1.337854
173,-1.62181349,3.700971989,-1.319178
174,-1.640151646,3.689640421,-1.301034
175,-1.656664306,3.678014431,-1.283645
176,-1.671243902,3.666065185,-1.267237
177,-1.683778074,3.653758314,-1.252038
178,-1.694157495,3.641065173,-1.238276
179,-1.702270331,3.627954336,-1.226182
180,-1.708003625,3.614394889,-1.215985
181,-1.712635026,3.598939401,-1.206506
182,-1.717519065,3.580357143,-1.19649
183,-1.722656504,3.558943572,-1.186057
184,-1.728047623,3.534995109,-1.175326
185,-1.73369308,3.50881007,-1.164416
186,-1.739594669,3.480690131,-1.153447
187,-1.745756618,3.45093898,-1.142536
188,-1.752184279,3.419861134,-1.1318
189,-1.75889195,3.387772624,-1.121355
190,-1.765893938,3.354986588,-1.111313
191,-1.773211167,3.321822588,-1.101785
192,-1.780869929,3.288606304,-1.092876
193,-1.789093822,3.25572533,-1.083931
194,-1.798084457,3.223510525,-1.074332
195,-1.8078426,3.19220145,-1.064241
196,-1.818370016,3.162039996,-1.053819
197,-1.829669168,3.133268073,-1.043228
198,-1.841743279,3.106125857,-1.032624
199,-1.854594009,3.080855907,-1.022166
200,-1.868221392,3.057701239,-1.012013
201,-1.882138256,3.037260731,-1.001778
202,-1.895907137,3.019875981,-0.991029
203,-1.909596184,3.005401697,-0.97985
204,-1.923266435,2.993691424,-0.968326
205,-1.936970252,2.984599957,-0.95654
206,-1.950688032,2.977826526,-0.944647
207,-1.964385691,2.973058881,-0.932809
208,-1.978082341,2.970135366,-0.921126
209,-1.991791489,2.968894128,-0.909699
210,-2.005522414,2.969173378,-0.898629
211,-2.01927869,2.970811693,-0.888022
212,-2.033059521,2.973647899,-0.877981
213,-2.046861064,2.977521479,-0.868614
214,-2.060674903,2.98227223,-0.860028
215,-2.074489362,2.987740372,-0.852334
216,-2.088290838,2.993766992,-0.845642
217,-2.102062295,3.000193225,-0.840065
218,-2.115784649,3.006860491,-0.835718
219,-2.129438172,3.013610844,-0.832718
220,-2.143001127,3.020285881,-0.831183
221,-2.156451296,3.026726973,-0.831234
222,-2.170936733,3.033634098,-0.834001
223,-2.187455993,3.041654081,-0.8403
224,-2.205793253,3.050534453,-0.849789
225,-2.225802947,3.060010864,-0.86212
226,-2.247331291,3.069812952,-0.876953
227,-2.270220425,3.079667216,-0.893957
228,-2.294309153,3.089298188,-0.91281
229,-2.319428955,3.098427706,-0.9332
230,-2.345404779,3.106776465,-0.954825
231,-2.37198416,3.113439617,-0.977326
232,-2.398865173,3.117813627,-1.00036
233,-2.425776726,3.120069188,-1.023666
234,-2.452439569,3.12037739,-1.046998
235,-2.478561633,3.118910248,-1.07012
236,-2.503843774,3.115849779,-1.092799
237,-2.527981782,3.111385576,-1.114811
238,-2.550656853,3.10571216,-1.135935
239,-2.571554165,3.099036898,-1.155949
240,-2.590342303,3.091600417,-1.174626
241,-2.606688654,3.083645752,-1.191735
242,-2.620257676,3.075385526,-1.207061
243,-2.630711114,3.067035466,-1.220383
244,-2.637707076,3.05881379,-1.231476
245,-2.640902439,3.050938544,-1.240108
246,-2.639954045,3.043624712,-1.246039
247,-2.634958024,3.038075066,-1.250788
248,-2.626310686,3.035539192,-1.256054
249,-2.614131415,3.036280412,-1.261845
250,-2.599524707,3.039518778,-1.267859
251,-2.583529311,3.044369082,-1.273808
252,-2.566179283,3.050912074,-1.279699
253,-2.547511701,3.059219586,-1.285538
254,-2.527562253,3.069358053,-1.291333
255,-2.506464375,3.08130608,-1.297057
256,-2.484318276,3.095045171,-1.3027
257,-2.461096386,3.110653764,-1.308295
258,-2.436755725,3.128224775,-1.313882
259,-2.411240536,3.14786657,-1.319508
260,-2.384469373,3.1696981,-1.325232
261,-2.356343003,3.193858936,-1.33112
262,-2.326739633,3.220500375,-1.337249
263,-2.295514396,3.249786464,-1.343709
264,-2.26255214,3.282523953,-1.350439
265,-2.227698897,3.319448122,-1.35742
266,-2.189007356,3.358612053,-1.366136
267,-2.145132152,3.397693958,-1.37772
268,-2.096769832,3.436222139,-1.3918
269,-2.044650743,3.473775072,-1.407985
270,-1.989535308,3.509987042,-1.425871
271,-1.932218709,3.544543623,-1.445041
272,-1.873523204,3.577183081,-1.465075
273,-1.814288707,3.607695651,-1.485555
274,-1.755693217,3.635021382,-1.506069
275,-1.698904843,3.658314819,-1.52621
276,-1.644770714,3.677732869,-1.545607
277,-1.594149118,3.693438746,-1.56393
278,-1.547903076,3.705598389,-1.580893
279,-1.507108612,3.714714006,-1.596093
280,-1.472539079,3.721236399,-1.609181
281,-1.438370648,3.724263225,-1.621271
282,-1.402429857,3.723423045,-1.632894
283,-1.365415399,3.71880466,-1.643947
284,-1.327598878,3.710901277,-1.654361
285,-1.288590547,3.700250737,-1.66426
286,-1.247975447,3.687127404,-1.673822
287,-1.205343459,3.671577515,-1.683297
288,-1.160345162,3.65355865,-1.692993
289,-1.11227021,3.633547133,-1.703117
290,-1.063538953,3.610313125,-1.713828
291,-1.015237272,3.584432689,-1.724756
292,-0.9679583868,3.556428205,-1.735657
293,-0.9222050714,3.52676025,-1.746277
294,-0.8783652849,3.495822375,-1.756383
295,-0.8367184994,3.463966345,-1.76576
296,-0.7974352386,3.431514413,-1.774216
297,-0.7605998049,3.398767272,-1.781567
298,-0.7260286298,3.365815858,-1.787985
299,-0.6935914476,3.332621189,-1.793817
300,-0.6634237028,3.299274428,-1.799153
