1,2.51763258,-1.239759998,-0.144802
2,2.521211131,-1.241133577,-0.171967
3,2.518058244,-1.24775204,-0.200648
4,2.508696762,-1.25910646,-0.230926
5,2.494367708,-1.274747517,-0.262816
6,2.476381689,-1.294319756,-0.296262
7,2.455439149,-1.317495724,-0.331286
8,2.432249258,-1.343937314,-0.367917
9,2.407512648,-1.373282101,-0.40617
10,2.381905924,-1.405131326,-0.446048
11,2.356067615,-1.439040172,-0.487539
12,2.330584362,-1.47451276,-0.5306
13,2.305979306,-1.510998477,-0.575166
14,2.282702508,-1.547890161,-0.621146
15,2.261121514,-1.584527505,-0.668421
16,2.241515505,-1.620199464,-0.716845
17,2.224071175,-1.654148762,-0.766253
18,2.208879515,-1.685579938,-0.816459
19,2.195936352,-1.713665213,-0.867258
20,2.185144838,-1.737551216,-0.918437
21,2.176318816,-1.756368094,-0.969768
22,2.169189914,-1.76923534,-1.021015
23,2.163416546,-1.775267442,-1.071937
24,2.158593596,-1.773581077,-1.122286
25,2.154265725,-1.763298606,-1.171804
26,2.149933942,-1.743567526,-1.220226
27,2.145078753,-1.713550249,-1.267273
28,2.139188675,-1.672406624,-1.312644
29,2.131774312,-1.619309235,-1.356019
30,2.122391534,-1.553445563,-1.397044
31,2.115690247,-1.486746682,-1.433813
32,2.116143667,-1.431267546,-1.464923
33,2.123078503,-1.386381219,-1.490713
34,2.135805985,-1.351446375,-1.511495
35,2.153624896,-1.325808787,-1.527567
36,2.175823378,-1.308804284,-1.539213
37,2.201681683,-1.299759089,-1.546713
38,2.230474162,-1.297990744,-1.550351
39,2.261470721,-1.302810308,-1.550416
40,2.293939297,-1.313522817,-1.547206
41,2.327147245,-1.329427863,-1.541039
42,2.360362802,-1.349821109,-1.532249
43,2.392107875,-1.374490761,-1.522316
44,2.421081223,-1.403100247,-1.512679
45,2.446822685,-1.434754884,-1.503626
46,2.468877877,-1.468558975,-1.495463
47,2.486796704,-1.503615654,-1.488515
48,2.500134256,-1.53902615,-1.483118
49,2.508450206,-1.573890308,-1.479621
50,2.511305959,-1.607306344,-1.478385
51,2.508266388,-1.638370957,-1.479773
52,2.49889648,-1.666178736,-1.484152
53,2.482758345,-1.689823554,-1.49189
54,2.459411452,-1.708397672,-1.503343
55,2.428408369,-1.72099206,-1.518855
56,2.389290173,-1.72669786,-1.538754
57,2.341585391,-1.72460508,-1.563341
58,2.284805101,-1.713803881,-1.592879
59,2.218436953,-1.693385906,-1.627597
60,2.141942968,-1.662442665,-1.667669
61,2.066559757,-1.627659636,-1.707018
62,2.003518443,-1.596120982,-1.739612
63,1.952246697,-1.567514601,-1.765638
64,1.912164816,-1.541527206,-1.785264
65,1.882683267,-1.517844464,-1.798645
66,1.863205907,-1.496150343,-1.805921
67,1.851587031,-1.476996996,-1.805455
68,1.845734278,-1.460984541,-1.796239
69,1.84512738,-1.447864868,-1.779334
70,1.849247306,-1.437385013,-1.755794
71,1.857577268,-1.42928681,-1.726664
72,1.869609479,-1.423306058,-1.69298
73,1.884844179,-1.419172911,-1.655773
74,1.902789608,-1.416611538,-1.616064
75,1.922967959,-1.415339431,-1.574868
76,1.944912414,-1.415067599,-1.533192
77,1.968166089,-1.415500314,-1.492039
78,1.992287248,-1.416334888,-1.452406
79,2.016840943,-1.417261788,-1.415283
80,2.041406023,-1.417964955,-1.381659
81,2.065566149,-1.418121966,-1.352519
82,2.088909671,-1.417404405,-1.328846
83,2.111030171,-1.41547955,-1.311623
84,2.131517657,-1.412010216,-1.301832
85,2.149956506,-1.406656182,-1.30046
86,2.165922832,-1.399077377,-1.308494
87,2.178631064,-1.388815339,-1.325631
88,2.186906061,-1.375607817,-1.350872
89,2.189710155,-1.359414744,-1.384172
90,2.185980697,-1.340200664,-1.425493
91,2.180890266,-1.319463604,-1.471432
92,2.180074009,-1.298800927,-1.518446
93,2.183148806,-1.278319152,-1.566318
94,2.189736696,-1.258114558,-1.614841
95,2.199463094,-1.238277759,-1.663803
96,2.211959125,-1.218888151,-1.713003
97,2.226860476,-1.200017775,-1.762243
98,2.243805613,-1.181736263,-1.811315
99,2.262438532,-1.164103945,-1.860018
100,2.282407451,-1.147176825,-1.908145
101,2.303362906,-1.131010808,-1.955478
102,2.324960553,-1.115654741,-2.001798
103,2.346859933,-1.101155584,-2.046882
104,2.368722776,-1.087562203,-2.090489
105,2.390215264,-1.074918605,-2.132376
106,2.41100707,-1.063269016,-2.172292
107,2.423421924,-1.075856778,-2.15131
108,2.431932157,-1.090999028,-2.125971
109,2.436693376,-1.108400575,-2.096582
110,2.437854415,-1.12777341,-2.063445
111,2.435556989,-1.148836093,-2.026866
112,2.429935371,-1.171315088,-1.987144
113,2.421115908,-1.194943983,-1.944581
114,2.409217339,-1.219462239,-1.899477
115,2.394350142,-1.244616289,-1.852132
116,2.376616766,-1.270158058,-1.802848
117,2.35611259,-1.295843188,-1.751928
118,2.332925021,-1.321431787,-1.699674
119,2.307134409,-1.346686385,-1.646393
120,2.278815637,-1.37136977,-1.592394
121,2.250033839,-1.392726861,-1.539049
122,2.222877037,-1.408448623,-1.487599
123,2.197456585,-1.418964322,-1.438161
124,2.173889723,-1.424699624,-1.390852
125,2.152298551,-1.426075713,-1.345788
126,2.13280877,-1.423509482,-1.303087
127,2.115546429,-1.417413713,-1.262863
128,2.100637139,-1.408197037,-1.225227
129,2.088204928,-1.396264715,-1.190289
130,2.078369783,-1.382018386,-1.158154
131,2.071246943,-1.365856744,-1.12892
132,2.066945755,-1.348176767,-1.102684
133,2.065568011,-1.329373256,-1.079537
134,2.06720725,-1.309840038,-1.059565
135,2.071947548,-1.289971471,-1.042853
136,2.07986271,-1.270161926,-1.029478
137,2.091015539,-1.250807319,-1.019517
138,2.105456542,-1.232306667,-1.013045
139,2.123224024,-1.215061652,-1.010134
140,2.144343291,-1.199478258,-1.010857
141,2.166672272,-1.18702897,-1.013603
142,2.187939481,-1.179326252,-1.016586
143,2.20795436,-1.176990608,-1.01962
144,2.226512475,-1.180641483,-1.022516
145,2.243398118,-1.190895827,-1.025081
146,2.258385031,-1.208367089,-1.027117
147,2.271237779,-1.233662684,-1.028419
148,2.281714896,-1.267383422,-1.028774
149,2.289570693,-1.310121424,-1.027958
150,2.294557897,-1.362456143,-1.025737
151,2.297833328,-1.415973598,-1.023611
152,2.300743359,-1.462148579,-1.02318
153,2.303320779,-1.50138245,-1.024343
154,2.305591935,-1.534076644,-1.026995
155,2.307577365,-1.560631121,-1.031027
156,2.309292507,-1.581444164,-1.036325
157,2.3107486,-1.596914535,-1.042772
158,2.311953367,-1.60744061,-1.050244
159,2.312911757,-1.613420587,-1.058616
160,2.313626781,-1.61525347,-1.067757
161,2.314100213,-1.613338742,-1.077532
162,2.314333319,-1.608076859,-1.087801
163,2.314327607,-1.599869301,-1.098421
164,2.314085483,-1.589118652,-1.109245
165,2.313610937,-1.576229251,-1.12012
166,2.312910139,-1.561606547,-1.130891
167,2.311992014,-1.545657453,-1.141398
168,2.310868808,-1.528791019,-1.151477
169,2.309556486,-1.511417334,-1.160959
170,2.308075157,-1.493948018,-1.169674
171,2.306449459,-1.47679678,-1.177446
172,2.304708702,-1.460378112,-1.184097
173,2.302887077,-1.44510778,-1.189445
174,2.301023793,-1.431403134,-1.193305
175,2.29916292,-1.419681833,-1.19549
176,2.297353323,-1.410362208,-1.195808
177,2.295648481,-1.403863183,-1.194067
178,2.294106012,-1.400603275,-1.190068
179,2.292787265,-1.401000704,-1.183615
180,2.291756772,-1.405472773,-1.174504
181,2.286863029,-1.407019428,-1.165299
182,2.274491923,-1.399035011,-1.15841
183,2.255515419,-1.382527752,-1.153405
184,2.2308092,-1.358505883,-1.149856
185,2.20125875,-1.327977904,-1.147347
186,2.167765466,-1.291954232,-1.145478
187,2.131248276,-1.251445152,-1.143873
188,2.092647039,-1.207461532,-1.142184
189,2.05292548,-1.161016299,-1.140096
190,2.013068945,-1.113120972,-1.137331
191,1.974085165,-1.064786513,-1.133648
192,1.937004166,-1.017024312,-1.128853
193,1.903172969,-0.9706389794,-1.122751
194,1.873812863,-0.9264142761,-1.115214
195,1.849782726,-0.885318117,-1.106198
196,1.831951194,-0.8483154421,-1.095696
197,1.821189789,-0.8163632377,-1.08373
198,1.818368256,-0.7904071796,-1.070349
199,1.824351251,-0.7713844268,-1.055625
200,1.839991669,-0.7602190666,-1.039649
201,1.861492612,-0.7532342705,-1.023415
202,1.884418618,-0.7461313148,-1.007934
203,1.908648034,-0.7388717602,-0.993339
204,1.93405204,-0.7313983313,-0.979766
205,1.960491574,-0.7236425699,-0.967355
206,1.987819391,-0.7155303798,-0.956242
207,2.015882788,-0.7069867903,-0.946552
208,2.044520818,-0.6979417419,-0.938402
209,2.073567292,-0.6883335773,-0.931892
210,2.102854211,-0.6781116534,-0.927105
211,2.132209301,-0.6672403228,-0.924101
212,2.161459658,-0.6557003624,-0.922919
213,2.190435489,-0.6434895206,-0.923572
214,2.218967867,-0.6306249193,-0.926048
215,2.246892534,-0.6171425897,-0.930306
216,2.27405348,-0.6030962208,-0.936281
217,2.300300696,-0.588558266,-0.943879
218,2.325493637,-0.5736178723,-0.952978
219,2.349504121,-0.5583781917,-0.963434
220,2.372213901,-0.542956442,-0.975074
221,2.393517317,-0.5274805519,-0.987708
222,2.413323119,-0.5120854052,-1.00112
223,2.431551732,-0.4969119932,-1.015081
224,2.448136753,-0.4821030643,-1.029343
225,2.463025464,-0.4677985918,-1.043648
226,2.476175733,-0.4541340062,-1.057726
227,2.487556182,-0.4412350406,-1.071302
228,2.497145263,-0.4292125655,-1.0841
229,2.504927833,-0.4181597345,-1.095843
230,2.510893898,-0.4081460649,-1.106257
231,2.514120855,-0.4086244571,-1.116635
232,2.513804747,-0.4276002924,-1.128347
233,2.510106972,-0.4629517646,-1.141255
234,2.503193799,-0.5125716532,-1.15524
235,2.493255783,-0.5743716692,-1.170175
236,2.480522218,-0.6462920566,-1.185918
237,2.465269905,-0.7263152582,-1.202302
238,2.447830662,-0.8124622938,-1.219125
239,2.42859261,-0.9028020124,-1.236142
240,2.407997238,-0.9954612503,-1.253067
241,2.386537881,-1.088613823,-1.269565
242,2.364752084,-1.18048607,-1.285253
243,2.34321194,-1.269360361,-1.299707
244,2.322517834,-1.35355719,-1.312462
245,2.303286828,-1.431434291,-1.323022
246,2.286140939,-1.501381351,-1.330867
247,2.268160757,-1.561484447,-1.334154
248,2.247048356,-1.609894239,-1.331221
249,2.224312768,-1.645093965,-1.321876
250,2.204854761,-1.6685778,-1.308657
251,2.192035296,-1.683435877,-1.294258
252,2.185001857,-1.690481183,-1.278819
253,2.182902225,-1.690490916,-1.26251
254,2.184888632,-1.684226007,-1.245508
255,2.190122753,-1.672444909,-1.227987
256,2.197778712,-1.655916644,-1.210103
257,2.207045312,-1.635430339,-1.191986
258,2.217128314,-1.611800285,-1.173732
259,2.227249523,-1.585873399,-1.155396
260,2.236646752,-1.558530539,-1.136995
261,2.244572651,-1.530684933,-1.118503
262,2.250290313,-1.503284751,-1.099858
263,2.253069732,-1.47730833,-1.08097
264,2.252181876,-1.453758036,-1.061723
265,2.246890836,-1.433657896,-1.041999
266,2.239421075,-1.416181651,-1.018666
267,2.232345949,-1.399859539,-0.989339
268,2.225428649,-1.384768327,-0.955025
269,2.218433087,-1.370991319,-0.916735
270,2.211146907,-1.358616081,-0.875476
271,2.203402945,-1.34773498,-0.832255
272,2.195096267,-1.338442841,-0.788071
273,2.186197904,-1.330835315,-0.743906
274,2.176767194,-1.32500912,-0.70073
275,2.16695927,-1.321060268,-0.659482
276,2.157029153,-1.319083135,-0.621069
277,2.147334764,-1.31917024,-0.586358
278,2.138334804,-1.321411109,-0.556169
279,2.130583753,-1.32589206,-0.531266
280,2.124662977,-1.332668239,-0.512158
281,2.119896636,-1.341242404,-0.495723
282,2.115889494,-1.351283665,-0.480773
283,2.112647144,-1.362630955,-0.467441
284,2.110188288,-1.375119245,-0.455829
285,2.108540601,-1.388580647,-0.446013
286,2.107737048,-1.40284289,-0.438039
287,2.107811798,-1.417730338,-0.431933
288,2.108796784,-1.43306542,-0.427697
289,2.110718599,-1.448666947,-0.425313
290,2.11359581,-1.464351525,-0.42475
291,2.117437253,-1.479935132,-0.425967
292,2.122240244,-1.495231461,-0.428917
293,2.127989906,-1.510053571,-0.433552
294,2.134659483,-1.524215464,-0.439829
295,2.142209873,-1.537530657,-0.447716
296,2.150590677,-1.549813947,-0.457197
297,2.159741854,-1.560882868,-0.468282
298,2.169593619,-1.570556748,-0.481006
299,2.180067822,-1.578658494,-0.495443
300,2.191079149,-1.585015882,-0.511709
