caimanFX,caimanFY,caimanFZ,iguanaFX,iguanaFY,iguanaFZ,salamanderFX,salamanderFY,salamanderFZ,skinkFX,skinkFY,skinkFZ,caimanHX,caimanHY,caimanHZ,iguanaHX,iguanaHY,iguanaHZ,salamanderHX,salamanderHY,salamanderHZ,skinkHX,skinkHY,skinkHZ,
26.99,13.645,0.393,62.26,15.455,0.458,85.45,19.12,0.211,79.04,10.36,0.202,58.59,21.985,0.501,45.49,6.52,0.254,67.86,20.615,0.292,45.82,9.855,0.154
26.99,13.645,0.382,62.26,15.455,0.441,85.45,19.12,0.203,79.04,10.36,0.195,58.59,21.985,0.48,45.49,6.52,0.242,67.86,20.615,0.273,45.82,9.855,0.146
23.853,13.645,0.38309,57.873,15.455,0.44268,81.185,19.12,0.20379,73.07,10.36,0.19569,53.678,21.985,0.48208,37.437,6.52,0.24319,61.959,20.615,0.27488,41.403,9.855,0.14679
21.337,13.645,0.38614,54.356,15.455,0.4474,77.765,19.12,0.20601,68.282,10.36,0.19764,49.74,21.985,0.48791,30.979,6.52,0.24652,57.227,20.615,0.28015,37.861,9.855,0.14901
19.941,13.645,0.39055,52.403,15.455,0.45422,75.866,19.12,0.20922,65.625,10.36,0.20044,47.554,21.985,0.49633,27.395,6.52,0.25133,54.601,20.615,0.28777,35.895,9.855,0.15222
19.941,13.645,0.39545,52.403,15.455,0.46178,75.866,19.12,0.21278,65.625,10.36,0.20356,47.554,21.985,0.50567,27.395,6.52,0.25667,54.601,20.615,0.29623,35.895,9.855,0.15578
21.337,13.645,0.39986,54.356,15.455,0.4686,77.765,19.12,0.21599,68.282,10.36,0.20636,49.74,21.985,0.51409,30.979,6.52,0.26148,57.227,20.615,0.30385,37.861,9.855,0.15899
23.853,13.645,0.40291,57.873,15.455,0.47332,81.185,19.12,0.21821,73.07,10.36,0.20831,53.678,21.985,0.51992,37.437,6.52,0.26481,61.959,20.615,0.30912,41.403,9.855,0.16121
26.99,13.645,0.404,62.26,15.455,0.475,85.45,19.12,0.219,79.04,10.36,0.209,58.59,21.985,0.522,45.49,6.52,0.266,67.86,20.615,0.311,45.82,9.855,0.162
26.99,13.645,0.382,62.26,15.455,0.441,85.45,19.12,0.203,79.04,10.36,0.195,58.59,21.985,0.48,45.49,6.52,0.242,67.86,20.615,0.273,45.82,9.855,0.146
25.034,12.814,0.38309,59.525,13.71,0.44268,82.791,17.473,0.20379,75.318,8.4739,0.19569,55.528,20.94,0.48208,40.469,4.9528,0.24319,64.181,19.419,0.27488,43.066,9.5243,0.14679
23.466,12.147,0.38614,57.332,12.31,0.4474,80.658,16.152,0.20601,72.332,6.9614,0.19764,53.072,20.102,0.48791,36.443,3.696,0.24652,61.23,18.46,0.28015,40.858,9.259,0.14901
22.595,11.778,0.39055,56.115,11.533,0.45422,79.475,15.419,0.20922,70.676,6.122,0.20044,51.709,19.637,0.49633,34.208,2.9985,0.25133,59.593,17.928,0.28777,39.632,9.1118,0.15222
22.595,11.778,0.39545,56.115,11.533,0.46178,79.475,15.419,0.21278,70.676,6.122,0.20356,51.709,19.637,0.50567,34.208,2.9985,0.25667,59.593,17.928,0.29623,39.632,9.1118,0.15578
23.466,12.147,0.39986,57.332,12.31,0.4686,80.658,16.152,0.21599,72.332,6.9614,0.20636,53.072,20.102,0.51409,36.443,3.696,0.26148,61.23,18.46,0.30385,40.858,9.259,0.15899
25.034,12.814,0.40291,59.525,13.71,0.47332,82.791,17.473,0.21821,75.318,8.4739,0.20831,55.528,20.94,0.51992,40.469,4.9528,0.26481,64.181,19.419,0.30912,43.066,9.5243,0.16121
26.99,13.645,0.404,62.26,15.455,0.475,85.45,19.12,0.219,79.04,10.36,0.209,58.59,21.985,0.522,45.49,6.52,0.266,67.86,20.615,0.311,45.82,9.855,0.162
26.99,13.645,0.382,62.26,15.455,0.441,85.45,19.12,0.203,79.04,10.36,0.195,58.59,21.985,0.48,45.49,6.52,0.242,67.86,20.615,0.273,45.82,9.855,0.146
27.688,12.609,0.38309,63.236,13.279,0.44268,86.399,17.066,0.20379,80.369,8.0081,0.19569,59.683,20.682,0.48208,47.282,4.5657,0.24319,69.173,19.124,0.27488,46.803,9.4426,0.14679
28.248,11.778,0.38614,64.019,11.533,0.4474,87.16,15.419,0.20601,81.434,6.122,0.19764,60.559,19.637,0.48791,48.719,2.9985,0.24652,70.226,17.928,0.28015,47.591,9.1118,0.14901
28.558,11.316,0.39055,64.453,10.565,0.45422,87.583,14.505,0.20922,82.025,5.0753,0.20044,61.046,19.058,0.49633,49.516,2.1288,0.25133,70.81,17.265,0.28777,48.028,8.9283,0.15222
28.558,11.316,0.39545,64.453,10.565,0.46178,87.583,14.505,0.21278,82.025,5.0753,0.20356,61.046,19.058,0.50567,49.516,2.1288,0.25667,70.81,17.265,0.29623,48.028,8.9283,0.15578
28.248,11.778,0.39986,64.019,11.533,0.4686,87.16,15.419,0.21599,81.434,6.122,0.20636,60.559,19.637,0.51409,48.719,2.9985,0.26148,70.226,17.928,0.30385,47.591,9.1118,0.15899
27.688,12.609,0.40291,63.236,13.279,0.47332,86.399,17.066,0.21821,80.369,8.0081,0.20831,59.683,20.682,0.51992,47.282,4.5657,0.26481,69.173,19.124,0.30912,46.803,9.4426,0.16121
26.99,13.645,0.404,62.26,15.455,0.475,85.45,19.12,0.219,79.04,10.36,0.209,58.59,21.985,0.522,45.49,6.52,0.266,67.86,20.615,0.311,45.82,9.855,0.162
26.99,13.645,0.382,62.26,15.455,0.441,85.45,19.12,0.203,79.04,10.36,0.195,58.59,21.985,0.48,45.49,6.52,0.242,67.86,20.615,0.273,45.82,9.855,0.146
29.816,13.184,0.38309,66.212,14.486,0.44268,89.293,18.206,0.20379,84.419,9.3133,0.19569,63.015,21.405,0.48208,52.745,5.6503,0.24319,73.176,19.951,0.27488,49.8,9.6715,0.14679
32.083,12.814,0.38614,69.382,13.71,0.4474,92.374,17.473,0.20601,88.733,8.4739,0.19764,66.564,20.94,0.48791,58.564,4.9528,0.24652,77.44,19.419,0.28015,52.991,9.5243,0.14901
33.341,12.609,0.39055,71.14,13.279,0.45422,94.084,17.066,0.20922,91.127,8.0081,0.20044,68.533,20.682,0.49633,61.793,4.5657,0.25133,79.806,19.124,0.28777,54.762,9.4426,0.15222
33.341,12.609,0.39545,71.14,13.279,0.46178,94.084,17.066,0.21278,91.127,8.0081,0.20356,68.533,20.682,0.50567,61.793,4.5657,0.25667,79.806,19.124,0.29623,54.762,9.4426,0.15578
32.083,12.814,0.39986,69.382,13.71,0.4686,92.374,17.473,0.21599,88.733,8.4739,0.20636,66.564,20.94,0.51409,58.564,4.9528,0.26148,77.44,19.419,0.30385,52.991,9.5243,0.15899
29.816,13.184,0.40291,66.212,14.486,0.47332,89.293,18.206,0.21821,84.419,9.3133,0.20831,63.015,21.405,0.51992,52.745,5.6503,0.26481,73.176,19.951,0.30912,49.8,9.6715,0.16121
26.99,13.645,0.404,62.26,15.455,0.475,85.45,19.12,0.219,79.04,10.36,0.209,58.59,21.985,0.522,45.49,6.52,0.266,67.86,20.615,0.311,45.82,9.855,0.162
26.99,13.645,0.382,62.26,15.455,0.441,85.45,19.12,0.203,79.04,10.36,0.195,58.59,21.985,0.48,45.49,6.52,0.242,67.86,20.615,0.273,45.82,9.855,0.146
29.816,14.106,0.38309,66.212,16.424,0.44268,89.293,20.034,0.20379,84.419,11.407,0.19569,63.015,22.565,0.48208,52.745,7.3897,0.24319,73.176,21.279,0.27488,49.8,10.039,0.14679
32.083,14.476,0.38614,69.382,17.2,0.4474,92.374,20.767,0.20601,88.733,12.246,0.19764,66.564,23.03,0.48791,58.564,8.0872,0.24652,77.44,21.811,0.28015,52.991,10.186,0.14901
33.341,14.681,0.39055,71.14,17.631,0.45422,94.084,21.174,0.20922,91.127,12.712,0.20044,68.533,23.288,0.49633,61.793,8.4743,0.25133,79.806,22.106,0.28777,54.762,10.267,0.15222
33.341,14.681,0.39545,71.14,17.631,0.46178,94.084,21.174,0.21278,91.127,12.712,0.20356,68.533,23.288,0.50567,61.793,8.4743,0.25667,79.806,22.106,0.29623,54.762,10.267,0.15578
32.083,14.476,0.39986,69.382,17.2,0.4686,92.374,20.767,0.21599,88.733,12.246,0.20636,66.564,23.03,0.51409,58.564,8.0872,0.26148,77.44,21.811,0.30385,52.991,10.186,0.15899
29.816,14.106,0.40291,66.212,16.424,0.47332,89.293,20.034,0.21821,84.419,11.407,0.20831,63.015,22.565,0.51992,52.745,7.3897,0.26481,73.176,21.279,0.30912,49.8,10.039,0.16121
26.99,13.645,0.404,62.26,15.455,0.475,85.45,19.12,0.219,79.04,10.36,0.209,58.59,21.985,0.522,45.49,6.52,0.266,67.86,20.615,0.311,45.82,9.855,0.162
26.99,13.645,0.382,62.26,15.455,0.441,85.45,19.12,0.203,79.04,10.36,0.195,58.59,21.985,0.48,45.49,6.52,0.242,67.86,20.615,0.273,45.82,9.855,0.146
27.688,14.681,0.38309,63.236,17.631,0.44268,86.399,21.174,0.20379,80.369,12.712,0.19569,59.683,23.288,0.48208,47.282,8.4743,0.24319,69.173,22.106,0.27488,46.803,10.267,0.14679
28.248,15.512,0.38614,64.019,19.377,0.4474,87.16,22.821,0.20601,81.434,14.598,0.19764,60.559,24.333,0.48791,48.719,10.041,0.24652,70.226,23.302,0.28015,47.591,10.598,0.14901
28.558,15.974,0.39055,64.453,20.345,0.45422,87.583,23.735,0.20922,82.025,15.645,0.20044,61.046,24.912,0.49633,49.516,10.911,0.25133,70.81,23.965,0.28777,48.028,10.782,0.15222
28.558,15.974,0.39545,64.453,20.345,0.46178,87.583,23.735,0.21278,82.025,15.645,0.20356,61.046,24.912,0.50567,49.516,10.911,0.25667,70.81,23.965,0.29623,48.028,10.782,0.15578
28.248,15.512,0.39986,64.019,19.377,0.4686,87.16,22.821,0.21599,81.434,14.598,0.20636,60.559,24.333,0.51409,48.719,10.041,0.26148,70.226,23.302,0.30385,47.591,10.598,0.15899
27.688,14.681,0.40291,63.236,17.631,0.47332,86.399,21.174,0.21821,80.369,12.712,0.20831,59.683,23.288,0.51992,47.282,8.4743,0.26481,69.173,22.106,0.30912,46.803,10.267,0.16121
26.99,13.645,0.404,62.26,15.455,0.475,85.45,19.12,0.219,79.04,10.36,0.209,58.59,21.985,0.522,45.49,6.52,0.266,67.86,20.615,0.311,45.82,9.855,0.162
26.99,13.645,0.382,62.26,15.455,0.441,85.45,19.12,0.203,79.04,10.36,0.195,58.59,21.985,0.48,45.49,6.52,0.242,67.86,20.615,0.273,45.82,9.855,0.146
25.034,14.476,0.38309,59.525,17.2,0.44268,82.791,20.767,0.20379,75.318,12.246,0.19569,55.528,23.03,0.48208,40.469,8.0872,0.24319,64.181,21.811,0.27488,43.066,10.186,0.14679
23.466,15.143,0.38614,57.332,18.6,0.4474,80.658,22.088,0.20601,72.332,13.759,0.19764,53.072,23.868,0.48791,36.443,9.344,0.24652,61.23,22.77,0.28015,40.858,10.451,0.14901
22.595,15.512,0.39055,56.115,19.377,0.45422,79.475,22.821,0.20922,70.676,14.598,0.20044,51.709,24.333,0.49633,34.208,10.041,0.25133,59.593,23.302,0.28777,39.632,10.598,0.15222
22.595,15.512,0.39545,56.115,19.377,0.46178,79.475,22.821,0.21278,70.676,14.598,0.20356,51.709,24.333,0.50567,34.208,10.041,0.25667,59.593,23.302,0.29623,39.632,10.598,0.15578
23.466,15.143,0.39986,57.332,18.6,0.4686,80.658,22.088,0.21599,72.332,13.759,0.20636,53.072,23.868,0.51409,36.443,9.344,0.26148,61.23,22.77,0.30385,40.858,10.451,0.15899
25.034,14.476,0.40291,59.525,17.2,0.47332,82.791,20.767,0.21821,75.318,12.246,0.20831,55.528,23.03,0.51992,40.469,8.0872,0.26481,64.181,21.811,0.30912,43.066,10.186,0.16121
26.99,13.645,0.404,62.26,15.455,0.475,85.45,19.12,0.219,79.04,10.36,0.209,58.59,21.985,0.522,45.49,6.52,0.266,67.86,20.615,0.311,45.82,9.855,0.162
26.99,13.645,0.382,62.26,15.455,0.441,85.45,19.12,0.203,79.04,10.36,0.195,58.59,21.985,0.48,45.49,6.52,0.242,67.86,20.615,0.273,45.82,9.855,0.146
23.853,13.645,0.38309,57.873,15.455,0.44268,81.185,19.12,0.20379,73.07,10.36,0.19569,53.678,21.985,0.48208,37.437,6.52,0.24319,61.959,20.615,0.27488,41.403,9.855,0.14679
21.337,13.645,0.38614,54.356,15.455,0.4474,77.765,19.12,0.20601,68.282,10.36,0.19764,49.74,21.985,0.48791,30.979,6.52,0.24652,57.227,20.615,0.28015,37.861,9.855,0.14901
19.941,13.645,0.39055,52.403,15.455,0.45422,75.866,19.12,0.20922,65.625,10.36,0.20044,47.554,21.985,0.49633,27.395,6.52,0.25133,54.601,20.615,0.28777,35.895,9.855,0.15222
19.941,13.645,0.39545,52.403,15.455,0.46178,75.866,19.12,0.21278,65.625,10.36,0.20356,47.554,21.985,0.50567,27.395,6.52,0.25667,54.601,20.615,0.29623,35.895,9.855,0.15578
21.337,13.645,0.39986,54.356,15.455,0.4686,77.765,19.12,0.21599,68.282,10.36,0.20636,49.74,21.985,0.51409,30.979,6.52,0.26148,57.227,20.615,0.30385,37.861,9.855,0.15899
23.853,13.645,0.40291,57.873,15.455,0.47332,81.185,19.12,0.21821,73.07,10.36,0.20831,53.678,21.985,0.51992,37.437,6.52,0.26481,61.959,20.615,0.30912,41.403,9.855,0.16121
26.99,13.645,0.404,62.26,15.455,0.475,85.45,19.12,0.219,79.04,10.36,0.209,58.59,21.985,0.522,45.49,6.52,0.266,67.86,20.615,0.311,45.82,9.855,0.162
